Fri, 20 Jul 2018 01:35:21 +0200 [WARNING] request="c34d67a4b2f3f" component="TYPO3.CMS.Core.Utility.ExtensionManagementUtility": TYPO3\CMS\Core\Category\CategoryRegistry: no category registered for table "pages". Key was already registered. 
Fri, 20 Jul 2018 01:35:21 +0200 [WARNING] request="c34d67a4b2f3f" component="TYPO3.CMS.Core.Utility.ExtensionManagementUtility": TYPO3\CMS\Core\Category\CategoryRegistry: no category registered for table "sys_file_metadata". Key was already registered. 
Fri, 20 Jul 2018 01:35:21 +0200 [WARNING] request="c34d67a4b2f3f" component="TYPO3.CMS.Core.Utility.ExtensionManagementUtility": TYPO3\CMS\Core\Category\CategoryRegistry: no category registered for table "tt_content". Key was already registered. 
Fri, 20 Jul 2018 01:37:51 +0200 [WARNING] request="f4c1025e987c6" component="TYPO3.CMS.Core.Utility.ExtensionManagementUtility": TYPO3\CMS\Core\Category\CategoryRegistry: no category registered for table "pages". Key was already registered. 
Fri, 20 Jul 2018 01:37:51 +0200 [WARNING] request="f4c1025e987c6" component="TYPO3.CMS.Core.Utility.ExtensionManagementUtility": TYPO3\CMS\Core\Category\CategoryRegistry: no category registered for table "sys_file_metadata". Key was already registered. 
Fri, 20 Jul 2018 01:37:51 +0200 [WARNING] request="f4c1025e987c6" component="TYPO3.CMS.Core.Utility.ExtensionManagementUtility": TYPO3\CMS\Core\Category\CategoryRegistry: no category registered for table "tt_content". Key was already registered. 
Mon, 23 Jul 2018 15:12:28 +0200 [WARNING] request="877cd143437c6" component="TYPO3.CMS.Core.Utility.ExtensionManagementUtility": TYPO3\CMS\Core\Category\CategoryRegistry: no category registered for table "pages". Key was already registered. 
Mon, 23 Jul 2018 15:12:28 +0200 [WARNING] request="877cd143437c6" component="TYPO3.CMS.Core.Utility.ExtensionManagementUtility": TYPO3\CMS\Core\Category\CategoryRegistry: no category registered for table "sys_file_metadata". Key was already registered. 
Mon, 23 Jul 2018 15:12:28 +0200 [WARNING] request="877cd143437c6" component="TYPO3.CMS.Core.Utility.ExtensionManagementUtility": TYPO3\CMS\Core\Category\CategoryRegistry: no category registered for table "tt_content". Key was already registered. 
Mon, 23 Jul 2018 15:21:24 +0200 [ALERT] request="3d3fb8a765e67" component="TYPO3.CMS.Frontend.ContentObject.Exception.ProductionExceptionHandler": Oops, an error occurred! Code: 201807231521221e738b6f - {"exception":"ReflectionException: Class Test\\Employee\\Controller\\PersonController does not exist in \/var\/www\/localhost\/www\/html\/vendor\/typo3\/cms\/typo3\/sysext\/extbase\/Classes\/Object\/Container\/ClassInfoFactory.php:35\nStack trace:\n#0 \/var\/www\/localhost\/www\/html\/vendor\/typo3\/cms\/typo3\/sysext\/extbase\/Classes\/Object\/Container\/ClassInfoFactory.php(35): ReflectionClass->__construct('Test\\\\Employee\\\\C...')\n#1 \/var\/www\/localhost\/www\/html\/vendor\/typo3\/cms\/typo3\/sysext\/extbase\/Classes\/Object\/Container\/Container.php(347): TYPO3\\CMS\\Extbase\\Object\\Container\\ClassInfoFactory->buildClassInfoFromClassName('Test\\\\Employee\\\\C...')\n#2 \/var\/www\/localhost\/www\/html\/vendor\/typo3\/cms\/typo3\/sysext\/extbase\/Classes\/Object\/Container\/Container.php(173): TYPO3\\CMS\\Extbase\\Object\\Container\\Container->getClassInfo('Test\\\\Employee\\\\C...')\n#3 \/var\/www\/localhost\/www\/html\/vendor\/typo3\/cms\/typo3\/sysext\/extbase\/Classes\/Object\/Container\/Container.php(126): TYPO3\\CMS\\Extbase\\Object\\Container\\Container->getInstanceInternal('Test\\\\Employee\\\\C...', Array)\n#4 \/var\/www\/localhost\/www\/html\/vendor\/typo3\/cms\/typo3\/sysext\/extbase\/Classes\/Object\/ObjectManager.php(98): TYPO3\\CMS\\Extbase\\Object\\Container\\Container->getInstance('Test\\\\Employee\\\\C...', Array)\n#5 \/var\/www\/localhost\/www\/html\/vendor\/typo3\/cms\/typo3\/sysext\/extbase\/Classes\/Mvc\/Dispatcher.php(114): TYPO3\\CMS\\Extbase\\Object\\ObjectManager->get('Test\\\\Employee\\\\C...')\n#6 \/var\/www\/localhost\/www\/html\/vendor\/typo3\/cms\/typo3\/sysext\/extbase\/Classes\/Mvc\/Dispatcher.php(83): TYPO3\\CMS\\Extbase\\Mvc\\Dispatcher->resolveController(Object(TYPO3\\CMS\\Extbase\\Mvc\\Web\\Request))\n#7 \/var\/www\/localhost\/www\/html\/vendor\/typo3\/cms\/typo3\/sysext\/extbase\/Classes\/Mvc\/Web\/FrontendRequestHandler.php(91): TYPO3\\CMS\\Extbase\\Mvc\\Dispatcher->dispatch(Object(TYPO3\\CMS\\Extbase\\Mvc\\Web\\Request), Object(TYPO3\\CMS\\Extbase\\Mvc\\Web\\Response))\n#8 \/var\/www\/localhost\/www\/html\/vendor\/typo3\/cms\/typo3\/sysext\/extbase\/Classes\/Core\/Bootstrap.php(199): TYPO3\\CMS\\Extbase\\Mvc\\Web\\FrontendRequestHandler->handleRequest()\n#9 \/var\/www\/localhost\/www\/html\/vendor\/typo3\/cms\/typo3\/sysext\/extbase\/Classes\/Core\/Bootstrap.php(186): TYPO3\\CMS\\Extbase\\Core\\Bootstrap->handleRequest()\n#10 [internal function]: TYPO3\\CMS\\Extbase\\Core\\Bootstrap->run('', Array)\n#11 \/var\/www\/localhost\/www\/html\/vendor\/typo3\/cms\/typo3\/sysext\/frontend\/Classes\/ContentObject\/ContentObjectRenderer.php(6341): call_user_func_array(Array, Array)\n#12 \/var\/www\/localhost\/www\/html\/vendor\/typo3\/cms\/typo3\/sysext\/frontend\/Classes\/ContentObject\/UserContentObject.php(41): TYPO3\\CMS\\Frontend\\ContentObject\\ContentObjectRenderer->callUserFunction('TYPO3\\\\CMS\\\\Extba...', Array, '')\n#13 \/var\/www\/localhost\/www\/html\/vendor\/typo3\/cms\/typo3\/sysext\/frontend\/Classes\/ContentObject\/ContentObjectRenderer.php(820): TYPO3\\CMS\\Frontend\\ContentObject\\UserContentObject->render(Array)\n#14 \/var\/www\/localhost\/www\/html\/vendor\/typo3\/cms\/typo3\/sysext\/frontend\/Classes\/ContentObject\/ContentObjectRenderer.php(736): TYPO3\\CMS\\Frontend\\ContentObject\\ContentObjectRenderer->render(Object(TYPO3\\CMS\\Frontend\\ContentObject\\UserContentObject), Array)\n#15 \/var\/www\/localhost\/www\/html\/vendor\/typo3\/cms\/typo3\/sysext\/frontend\/Classes\/Controller\/TypoScriptFrontendController.php(3528): TYPO3\\CMS\\Frontend\\ContentObject\\ContentObjectRenderer->cObjGetSingle('USER', Array)\n#16 \/var\/www\/localhost\/www\/html\/vendor\/typo3\/cms\/typo3\/sysext\/frontend\/Classes\/Controller\/TypoScriptFrontendController.php(3490): TYPO3\\CMS\\Frontend\\Controller\\TypoScriptFrontendController->INTincScript_process(Array)\n#17 \/var\/www\/localhost\/www\/html\/vendor\/typo3\/cms\/typo3\/sysext\/frontend\/Classes\/Controller\/TypoScriptFrontendController.php(3457): TYPO3\\CMS\\Frontend\\Controller\\TypoScriptFrontendController->recursivelyReplaceIntPlaceholdersInContent()\n#18 \/var\/www\/localhost\/www\/html\/vendor\/typo3\/cms\/typo3\/sysext\/frontend\/Classes\/Http\/RequestHandler.php(226): TYPO3\\CMS\\Frontend\\Controller\\TypoScriptFrontendController->INTincScript()\n#19 \/var\/www\/localhost\/www\/html\/vendor\/typo3\/cms\/typo3\/sysext\/core\/Classes\/Core\/Bootstrap.php(316): TYPO3\\CMS\\Frontend\\Http\\RequestHandler->handleRequest(Object(TYPO3\\CMS\\Core\\Http\\ServerRequest))\n#20 \/var\/www\/localhost\/www\/html\/vendor\/typo3\/cms\/typo3\/sysext\/frontend\/Classes\/Http\/Application.php(79): TYPO3\\CMS\\Core\\Core\\Bootstrap->handleRequest(Object(TYPO3\\CMS\\Core\\Http\\ServerRequest))\n#21 \/var\/www\/localhost\/www\/html\/vendor\/typo3\/cms\/typo3\/sysext\/frontend\/Resources\/Private\/Php\/frontend.php(23): TYPO3\\CMS\\Frontend\\Http\\Application->run()\n#22 \/var\/www\/localhost\/www\/html\/vendor\/typo3\/cms\/typo3\/sysext\/frontend\/Resources\/Private\/Php\/frontend.php(24): {closure}()\n#23 \/var\/www\/localhost\/www\/html\/vendor\/typo3\/cms\/index.php(3): require('\/var\/www\/localh...')\n#24 {main}\n\nNext TYPO3\\CMS\\Extbase\\Object\\Container\\Exception\\UnknownObjectException: Could not analyse class: \"Test\\Employee\\Controller\\PersonController\" maybe not loaded or no autoloader? Class Test\\Employee\\Controller\\PersonController does not exist in \/var\/www\/localhost\/www\/html\/vendor\/typo3\/cms\/typo3\/sysext\/extbase\/Classes\/Object\/Container\/ClassInfoFactory.php:37\nStack trace:\n#0 \/var\/www\/localhost\/www\/html\/vendor\/typo3\/cms\/typo3\/sysext\/extbase\/Classes\/Object\/Container\/Container.php(347): TYPO3\\CMS\\Extbase\\Object\\Container\\ClassInfoFactory->buildClassInfoFromClassName('Test\\\\Employee\\\\C...')\n#1 \/var\/www\/localhost\/www\/html\/vendor\/typo3\/cms\/typo3\/sysext\/extbase\/Classes\/Object\/Container\/Container.php(173): TYPO3\\CMS\\Extbase\\Object\\Container\\Container->getClassInfo('Test\\\\Employee\\\\C...')\n#2 \/var\/www\/localhost\/www\/html\/vendor\/typo3\/cms\/typo3\/sysext\/extbase\/Classes\/Object\/Container\/Container.php(126): TYPO3\\CMS\\Extbase\\Object\\Container\\Container->getInstanceInternal('Test\\\\Employee\\\\C...', Array)\n#3 \/var\/www\/localhost\/www\/html\/vendor\/typo3\/cms\/typo3\/sysext\/extbase\/Classes\/Object\/ObjectManager.php(98): TYPO3\\CMS\\Extbase\\Object\\Container\\Container->getInstance('Test\\\\Employee\\\\C...', Array)\n#4 \/var\/www\/localhost\/www\/html\/vendor\/typo3\/cms\/typo3\/sysext\/extbase\/Classes\/Mvc\/Dispatcher.php(114): TYPO3\\CMS\\Extbase\\Object\\ObjectManager->get('Test\\\\Employee\\\\C...')\n#5 \/var\/www\/localhost\/www\/html\/vendor\/typo3\/cms\/typo3\/sysext\/extbase\/Classes\/Mvc\/Dispatcher.php(83): TYPO3\\CMS\\Extbase\\Mvc\\Dispatcher->resolveController(Object(TYPO3\\CMS\\Extbase\\Mvc\\Web\\Request))\n#6 \/var\/www\/localhost\/www\/html\/vendor\/typo3\/cms\/typo3\/sysext\/extbase\/Classes\/Mvc\/Web\/FrontendRequestHandler.php(91): TYPO3\\CMS\\Extbase\\Mvc\\Dispatcher->dispatch(Object(TYPO3\\CMS\\Extbase\\Mvc\\Web\\Request), Object(TYPO3\\CMS\\Extbase\\Mvc\\Web\\Response))\n#7 \/var\/www\/localhost\/www\/html\/vendor\/typo3\/cms\/typo3\/sysext\/extbase\/Classes\/Core\/Bootstrap.php(199): TYPO3\\CMS\\Extbase\\Mvc\\Web\\FrontendRequestHandler->handleRequest()\n#8 \/var\/www\/localhost\/www\/html\/vendor\/typo3\/cms\/typo3\/sysext\/extbase\/Classes\/Core\/Bootstrap.php(186): TYPO3\\CMS\\Extbase\\Core\\Bootstrap->handleRequest()\n#9 [internal function]: TYPO3\\CMS\\Extbase\\Core\\Bootstrap->run('', Array)\n#10 \/var\/www\/localhost\/www\/html\/vendor\/typo3\/cms\/typo3\/sysext\/frontend\/Classes\/ContentObject\/ContentObjectRenderer.php(6341): call_user_func_array(Array, Array)\n#11 \/var\/www\/localhost\/www\/html\/vendor\/typo3\/cms\/typo3\/sysext\/frontend\/Classes\/ContentObject\/UserContentObject.php(41): TYPO3\\CMS\\Frontend\\ContentObject\\ContentObjectRenderer->callUserFunction('TYPO3\\\\CMS\\\\Extba...', Array, '')\n#12 \/var\/www\/localhost\/www\/html\/vendor\/typo3\/cms\/typo3\/sysext\/frontend\/Classes\/ContentObject\/ContentObjectRenderer.php(820): TYPO3\\CMS\\Frontend\\ContentObject\\UserContentObject->render(Array)\n#13 \/var\/www\/localhost\/www\/html\/vendor\/typo3\/cms\/typo3\/sysext\/frontend\/Classes\/ContentObject\/ContentObjectRenderer.php(736): TYPO3\\CMS\\Frontend\\ContentObject\\ContentObjectRenderer->render(Object(TYPO3\\CMS\\Frontend\\ContentObject\\UserContentObject), Array)\n#14 \/var\/www\/localhost\/www\/html\/vendor\/typo3\/cms\/typo3\/sysext\/frontend\/Classes\/Controller\/TypoScriptFrontendController.php(3528): TYPO3\\CMS\\Frontend\\ContentObject\\ContentObjectRenderer->cObjGetSingle('USER', Array)\n#15 \/var\/www\/localhost\/www\/html\/vendor\/typo3\/cms\/typo3\/sysext\/frontend\/Classes\/Controller\/TypoScriptFrontendController.php(3490): TYPO3\\CMS\\Frontend\\Controller\\TypoScriptFrontendController->INTincScript_process(Array)\n#16 \/var\/www\/localhost\/www\/html\/vendor\/typo3\/cms\/typo3\/sysext\/frontend\/Classes\/Controller\/TypoScriptFrontendController.php(3457): TYPO3\\CMS\\Frontend\\Controller\\TypoScriptFrontendController->recursivelyReplaceIntPlaceholdersInContent()\n#17 \/var\/www\/localhost\/www\/html\/vendor\/typo3\/cms\/typo3\/sysext\/frontend\/Classes\/Http\/RequestHandler.php(226): TYPO3\\CMS\\Frontend\\Controller\\TypoScriptFrontendController->INTincScript()\n#18 \/var\/www\/localhost\/www\/html\/vendor\/typo3\/cms\/typo3\/sysext\/core\/Classes\/Core\/Bootstrap.php(316): TYPO3\\CMS\\Frontend\\Http\\RequestHandler->handleRequest(Object(TYPO3\\CMS\\Core\\Http\\ServerRequest))\n#19 \/var\/www\/localhost\/www\/html\/vendor\/typo3\/cms\/typo3\/sysext\/frontend\/Classes\/Http\/Application.php(79): TYPO3\\CMS\\Core\\Core\\Bootstrap->handleRequest(Object(TYPO3\\CMS\\Core\\Http\\ServerRequest))\n#20 \/var\/www\/localhost\/www\/html\/vendor\/typo3\/cms\/typo3\/sysext\/frontend\/Resources\/Private\/Php\/frontend.php(23): TYPO3\\CMS\\Frontend\\Http\\Application->run()\n#21 \/var\/www\/localhost\/www\/html\/vendor\/typo3\/cms\/typo3\/sysext\/frontend\/Resources\/Private\/Php\/frontend.php(24): {closure}()\n#22 \/var\/www\/localhost\/www\/html\/vendor\/typo3\/cms\/index.php(3): require('\/var\/www\/localh...')\n#23 {main}"}
Mon, 23 Jul 2018 15:22:32 +0200 [ALERT] request="4ac7aea6468a1" component="TYPO3.CMS.Frontend.ContentObject.Exception.ProductionExceptionHandler": Oops, an error occurred! Code: 2018072315222942755862 - {"exception":"ReflectionException: Class Test\\Employee\\Controller\\PersonController does not exist in \/var\/www\/localhost\/www\/html\/vendor\/typo3\/cms\/typo3\/sysext\/extbase\/Classes\/Object\/Container\/ClassInfoFactory.php:35\nStack trace:\n#0 \/var\/www\/localhost\/www\/html\/vendor\/typo3\/cms\/typo3\/sysext\/extbase\/Classes\/Object\/Container\/ClassInfoFactory.php(35): ReflectionClass->__construct('Test\\\\Employee\\\\C...')\n#1 \/var\/www\/localhost\/www\/html\/vendor\/typo3\/cms\/typo3\/sysext\/extbase\/Classes\/Object\/Container\/Container.php(347): TYPO3\\CMS\\Extbase\\Object\\Container\\ClassInfoFactory->buildClassInfoFromClassName('Test\\\\Employee\\\\C...')\n#2 \/var\/www\/localhost\/www\/html\/vendor\/typo3\/cms\/typo3\/sysext\/extbase\/Classes\/Object\/Container\/Container.php(173): TYPO3\\CMS\\Extbase\\Object\\Container\\Container->getClassInfo('Test\\\\Employee\\\\C...')\n#3 \/var\/www\/localhost\/www\/html\/vendor\/typo3\/cms\/typo3\/sysext\/extbase\/Classes\/Object\/Container\/Container.php(126): TYPO3\\CMS\\Extbase\\Object\\Container\\Container->getInstanceInternal('Test\\\\Employee\\\\C...', Array)\n#4 \/var\/www\/localhost\/www\/html\/vendor\/typo3\/cms\/typo3\/sysext\/extbase\/Classes\/Object\/ObjectManager.php(98): TYPO3\\CMS\\Extbase\\Object\\Container\\Container->getInstance('Test\\\\Employee\\\\C...', Array)\n#5 \/var\/www\/localhost\/www\/html\/vendor\/typo3\/cms\/typo3\/sysext\/extbase\/Classes\/Mvc\/Dispatcher.php(114): TYPO3\\CMS\\Extbase\\Object\\ObjectManager->get('Test\\\\Employee\\\\C...')\n#6 \/var\/www\/localhost\/www\/html\/vendor\/typo3\/cms\/typo3\/sysext\/extbase\/Classes\/Mvc\/Dispatcher.php(83): TYPO3\\CMS\\Extbase\\Mvc\\Dispatcher->resolveController(Object(TYPO3\\CMS\\Extbase\\Mvc\\Web\\Request))\n#7 \/var\/www\/localhost\/www\/html\/vendor\/typo3\/cms\/typo3\/sysext\/extbase\/Classes\/Mvc\/Web\/FrontendRequestHandler.php(91): TYPO3\\CMS\\Extbase\\Mvc\\Dispatcher->dispatch(Object(TYPO3\\CMS\\Extbase\\Mvc\\Web\\Request), Object(TYPO3\\CMS\\Extbase\\Mvc\\Web\\Response))\n#8 \/var\/www\/localhost\/www\/html\/vendor\/typo3\/cms\/typo3\/sysext\/extbase\/Classes\/Core\/Bootstrap.php(199): TYPO3\\CMS\\Extbase\\Mvc\\Web\\FrontendRequestHandler->handleRequest()\n#9 \/var\/www\/localhost\/www\/html\/vendor\/typo3\/cms\/typo3\/sysext\/extbase\/Classes\/Core\/Bootstrap.php(186): TYPO3\\CMS\\Extbase\\Core\\Bootstrap->handleRequest()\n#10 [internal function]: TYPO3\\CMS\\Extbase\\Core\\Bootstrap->run('', Array)\n#11 \/var\/www\/localhost\/www\/html\/vendor\/typo3\/cms\/typo3\/sysext\/frontend\/Classes\/ContentObject\/ContentObjectRenderer.php(6341): call_user_func_array(Array, Array)\n#12 \/var\/www\/localhost\/www\/html\/vendor\/typo3\/cms\/typo3\/sysext\/frontend\/Classes\/ContentObject\/UserContentObject.php(41): TYPO3\\CMS\\Frontend\\ContentObject\\ContentObjectRenderer->callUserFunction('TYPO3\\\\CMS\\\\Extba...', Array, '')\n#13 \/var\/www\/localhost\/www\/html\/vendor\/typo3\/cms\/typo3\/sysext\/frontend\/Classes\/ContentObject\/ContentObjectRenderer.php(820): TYPO3\\CMS\\Frontend\\ContentObject\\UserContentObject->render(Array)\n#14 \/var\/www\/localhost\/www\/html\/vendor\/typo3\/cms\/typo3\/sysext\/frontend\/Classes\/ContentObject\/ContentObjectRenderer.php(736): TYPO3\\CMS\\Frontend\\ContentObject\\ContentObjectRenderer->render(Object(TYPO3\\CMS\\Frontend\\ContentObject\\UserContentObject), Array)\n#15 \/var\/www\/localhost\/www\/html\/vendor\/typo3\/cms\/typo3\/sysext\/frontend\/Classes\/Controller\/TypoScriptFrontendController.php(3528): TYPO3\\CMS\\Frontend\\ContentObject\\ContentObjectRenderer->cObjGetSingle('USER', Array)\n#16 \/var\/www\/localhost\/www\/html\/vendor\/typo3\/cms\/typo3\/sysext\/frontend\/Classes\/Controller\/TypoScriptFrontendController.php(3490): TYPO3\\CMS\\Frontend\\Controller\\TypoScriptFrontendController->INTincScript_process(Array)\n#17 \/var\/www\/localhost\/www\/html\/vendor\/typo3\/cms\/typo3\/sysext\/frontend\/Classes\/Controller\/TypoScriptFrontendController.php(3457): TYPO3\\CMS\\Frontend\\Controller\\TypoScriptFrontendController->recursivelyReplaceIntPlaceholdersInContent()\n#18 \/var\/www\/localhost\/www\/html\/vendor\/typo3\/cms\/typo3\/sysext\/frontend\/Classes\/Http\/RequestHandler.php(226): TYPO3\\CMS\\Frontend\\Controller\\TypoScriptFrontendController->INTincScript()\n#19 \/var\/www\/localhost\/www\/html\/vendor\/typo3\/cms\/typo3\/sysext\/core\/Classes\/Core\/Bootstrap.php(316): TYPO3\\CMS\\Frontend\\Http\\RequestHandler->handleRequest(Object(TYPO3\\CMS\\Core\\Http\\ServerRequest))\n#20 \/var\/www\/localhost\/www\/html\/vendor\/typo3\/cms\/typo3\/sysext\/frontend\/Classes\/Http\/Application.php(79): TYPO3\\CMS\\Core\\Core\\Bootstrap->handleRequest(Object(TYPO3\\CMS\\Core\\Http\\ServerRequest))\n#21 \/var\/www\/localhost\/www\/html\/vendor\/typo3\/cms\/typo3\/sysext\/frontend\/Resources\/Private\/Php\/frontend.php(23): TYPO3\\CMS\\Frontend\\Http\\Application->run()\n#22 \/var\/www\/localhost\/www\/html\/vendor\/typo3\/cms\/typo3\/sysext\/frontend\/Resources\/Private\/Php\/frontend.php(24): {closure}()\n#23 \/var\/www\/localhost\/www\/html\/vendor\/typo3\/cms\/index.php(3): require('\/var\/www\/localh...')\n#24 {main}\n\nNext TYPO3\\CMS\\Extbase\\Object\\Container\\Exception\\UnknownObjectException: Could not analyse class: \"Test\\Employee\\Controller\\PersonController\" maybe not loaded or no autoloader? Class Test\\Employee\\Controller\\PersonController does not exist in \/var\/www\/localhost\/www\/html\/vendor\/typo3\/cms\/typo3\/sysext\/extbase\/Classes\/Object\/Container\/ClassInfoFactory.php:37\nStack trace:\n#0 \/var\/www\/localhost\/www\/html\/vendor\/typo3\/cms\/typo3\/sysext\/extbase\/Classes\/Object\/Container\/Container.php(347): TYPO3\\CMS\\Extbase\\Object\\Container\\ClassInfoFactory->buildClassInfoFromClassName('Test\\\\Employee\\\\C...')\n#1 \/var\/www\/localhost\/www\/html\/vendor\/typo3\/cms\/typo3\/sysext\/extbase\/Classes\/Object\/Container\/Container.php(173): TYPO3\\CMS\\Extbase\\Object\\Container\\Container->getClassInfo('Test\\\\Employee\\\\C...')\n#2 \/var\/www\/localhost\/www\/html\/vendor\/typo3\/cms\/typo3\/sysext\/extbase\/Classes\/Object\/Container\/Container.php(126): TYPO3\\CMS\\Extbase\\Object\\Container\\Container->getInstanceInternal('Test\\\\Employee\\\\C...', Array)\n#3 \/var\/www\/localhost\/www\/html\/vendor\/typo3\/cms\/typo3\/sysext\/extbase\/Classes\/Object\/ObjectManager.php(98): TYPO3\\CMS\\Extbase\\Object\\Container\\Container->getInstance('Test\\\\Employee\\\\C...', Array)\n#4 \/var\/www\/localhost\/www\/html\/vendor\/typo3\/cms\/typo3\/sysext\/extbase\/Classes\/Mvc\/Dispatcher.php(114): TYPO3\\CMS\\Extbase\\Object\\ObjectManager->get('Test\\\\Employee\\\\C...')\n#5 \/var\/www\/localhost\/www\/html\/vendor\/typo3\/cms\/typo3\/sysext\/extbase\/Classes\/Mvc\/Dispatcher.php(83): TYPO3\\CMS\\Extbase\\Mvc\\Dispatcher->resolveController(Object(TYPO3\\CMS\\Extbase\\Mvc\\Web\\Request))\n#6 \/var\/www\/localhost\/www\/html\/vendor\/typo3\/cms\/typo3\/sysext\/extbase\/Classes\/Mvc\/Web\/FrontendRequestHandler.php(91): TYPO3\\CMS\\Extbase\\Mvc\\Dispatcher->dispatch(Object(TYPO3\\CMS\\Extbase\\Mvc\\Web\\Request), Object(TYPO3\\CMS\\Extbase\\Mvc\\Web\\Response))\n#7 \/var\/www\/localhost\/www\/html\/vendor\/typo3\/cms\/typo3\/sysext\/extbase\/Classes\/Core\/Bootstrap.php(199): TYPO3\\CMS\\Extbase\\Mvc\\Web\\FrontendRequestHandler->handleRequest()\n#8 \/var\/www\/localhost\/www\/html\/vendor\/typo3\/cms\/typo3\/sysext\/extbase\/Classes\/Core\/Bootstrap.php(186): TYPO3\\CMS\\Extbase\\Core\\Bootstrap->handleRequest()\n#9 [internal function]: TYPO3\\CMS\\Extbase\\Core\\Bootstrap->run('', Array)\n#10 \/var\/www\/localhost\/www\/html\/vendor\/typo3\/cms\/typo3\/sysext\/frontend\/Classes\/ContentObject\/ContentObjectRenderer.php(6341): call_user_func_array(Array, Array)\n#11 \/var\/www\/localhost\/www\/html\/vendor\/typo3\/cms\/typo3\/sysext\/frontend\/Classes\/ContentObject\/UserContentObject.php(41): TYPO3\\CMS\\Frontend\\ContentObject\\ContentObjectRenderer->callUserFunction('TYPO3\\\\CMS\\\\Extba...', Array, '')\n#12 \/var\/www\/localhost\/www\/html\/vendor\/typo3\/cms\/typo3\/sysext\/frontend\/Classes\/ContentObject\/ContentObjectRenderer.php(820): TYPO3\\CMS\\Frontend\\ContentObject\\UserContentObject->render(Array)\n#13 \/var\/www\/localhost\/www\/html\/vendor\/typo3\/cms\/typo3\/sysext\/frontend\/Classes\/ContentObject\/ContentObjectRenderer.php(736): TYPO3\\CMS\\Frontend\\ContentObject\\ContentObjectRenderer->render(Object(TYPO3\\CMS\\Frontend\\ContentObject\\UserContentObject), Array)\n#14 \/var\/www\/localhost\/www\/html\/vendor\/typo3\/cms\/typo3\/sysext\/frontend\/Classes\/Controller\/TypoScriptFrontendController.php(3528): TYPO3\\CMS\\Frontend\\ContentObject\\ContentObjectRenderer->cObjGetSingle('USER', Array)\n#15 \/var\/www\/localhost\/www\/html\/vendor\/typo3\/cms\/typo3\/sysext\/frontend\/Classes\/Controller\/TypoScriptFrontendController.php(3490): TYPO3\\CMS\\Frontend\\Controller\\TypoScriptFrontendController->INTincScript_process(Array)\n#16 \/var\/www\/localhost\/www\/html\/vendor\/typo3\/cms\/typo3\/sysext\/frontend\/Classes\/Controller\/TypoScriptFrontendController.php(3457): TYPO3\\CMS\\Frontend\\Controller\\TypoScriptFrontendController->recursivelyReplaceIntPlaceholdersInContent()\n#17 \/var\/www\/localhost\/www\/html\/vendor\/typo3\/cms\/typo3\/sysext\/frontend\/Classes\/Http\/RequestHandler.php(226): TYPO3\\CMS\\Frontend\\Controller\\TypoScriptFrontendController->INTincScript()\n#18 \/var\/www\/localhost\/www\/html\/vendor\/typo3\/cms\/typo3\/sysext\/core\/Classes\/Core\/Bootstrap.php(316): TYPO3\\CMS\\Frontend\\Http\\RequestHandler->handleRequest(Object(TYPO3\\CMS\\Core\\Http\\ServerRequest))\n#19 \/var\/www\/localhost\/www\/html\/vendor\/typo3\/cms\/typo3\/sysext\/frontend\/Classes\/Http\/Application.php(79): TYPO3\\CMS\\Core\\Core\\Bootstrap->handleRequest(Object(TYPO3\\CMS\\Core\\Http\\ServerRequest))\n#20 \/var\/www\/localhost\/www\/html\/vendor\/typo3\/cms\/typo3\/sysext\/frontend\/Resources\/Private\/Php\/frontend.php(23): TYPO3\\CMS\\Frontend\\Http\\Application->run()\n#21 \/var\/www\/localhost\/www\/html\/vendor\/typo3\/cms\/typo3\/sysext\/frontend\/Resources\/Private\/Php\/frontend.php(24): {closure}()\n#22 \/var\/www\/localhost\/www\/html\/vendor\/typo3\/cms\/index.php(3): require('\/var\/www\/localh...')\n#23 {main}"}
Mon, 23 Jul 2018 15:23:33 +0200 [ALERT] request="1b5716cfc0935" component="TYPO3.CMS.Frontend.ContentObject.Exception.ProductionExceptionHandler": Oops, an error occurred! Code: 20180723152331ae741252 - {"exception":"ReflectionException: Class Test\\Employee\\Controller\\PersonController does not exist in \/var\/www\/localhost\/www\/html\/vendor\/typo3\/cms\/typo3\/sysext\/extbase\/Classes\/Object\/Container\/ClassInfoFactory.php:35\nStack trace:\n#0 \/var\/www\/localhost\/www\/html\/vendor\/typo3\/cms\/typo3\/sysext\/extbase\/Classes\/Object\/Container\/ClassInfoFactory.php(35): ReflectionClass->__construct('Test\\\\Employee\\\\C...')\n#1 \/var\/www\/localhost\/www\/html\/vendor\/typo3\/cms\/typo3\/sysext\/extbase\/Classes\/Object\/Container\/Container.php(347): TYPO3\\CMS\\Extbase\\Object\\Container\\ClassInfoFactory->buildClassInfoFromClassName('Test\\\\Employee\\\\C...')\n#2 \/var\/www\/localhost\/www\/html\/vendor\/typo3\/cms\/typo3\/sysext\/extbase\/Classes\/Object\/Container\/Container.php(173): TYPO3\\CMS\\Extbase\\Object\\Container\\Container->getClassInfo('Test\\\\Employee\\\\C...')\n#3 \/var\/www\/localhost\/www\/html\/vendor\/typo3\/cms\/typo3\/sysext\/extbase\/Classes\/Object\/Container\/Container.php(126): TYPO3\\CMS\\Extbase\\Object\\Container\\Container->getInstanceInternal('Test\\\\Employee\\\\C...', Array)\n#4 \/var\/www\/localhost\/www\/html\/vendor\/typo3\/cms\/typo3\/sysext\/extbase\/Classes\/Object\/ObjectManager.php(98): TYPO3\\CMS\\Extbase\\Object\\Container\\Container->getInstance('Test\\\\Employee\\\\C...', Array)\n#5 \/var\/www\/localhost\/www\/html\/vendor\/typo3\/cms\/typo3\/sysext\/extbase\/Classes\/Mvc\/Dispatcher.php(114): TYPO3\\CMS\\Extbase\\Object\\ObjectManager->get('Test\\\\Employee\\\\C...')\n#6 \/var\/www\/localhost\/www\/html\/vendor\/typo3\/cms\/typo3\/sysext\/extbase\/Classes\/Mvc\/Dispatcher.php(83): TYPO3\\CMS\\Extbase\\Mvc\\Dispatcher->resolveController(Object(TYPO3\\CMS\\Extbase\\Mvc\\Web\\Request))\n#7 \/var\/www\/localhost\/www\/html\/vendor\/typo3\/cms\/typo3\/sysext\/extbase\/Classes\/Mvc\/Web\/FrontendRequestHandler.php(91): TYPO3\\CMS\\Extbase\\Mvc\\Dispatcher->dispatch(Object(TYPO3\\CMS\\Extbase\\Mvc\\Web\\Request), Object(TYPO3\\CMS\\Extbase\\Mvc\\Web\\Response))\n#8 \/var\/www\/localhost\/www\/html\/vendor\/typo3\/cms\/typo3\/sysext\/extbase\/Classes\/Core\/Bootstrap.php(199): TYPO3\\CMS\\Extbase\\Mvc\\Web\\FrontendRequestHandler->handleRequest()\n#9 \/var\/www\/localhost\/www\/html\/vendor\/typo3\/cms\/typo3\/sysext\/extbase\/Classes\/Core\/Bootstrap.php(186): TYPO3\\CMS\\Extbase\\Core\\Bootstrap->handleRequest()\n#10 [internal function]: TYPO3\\CMS\\Extbase\\Core\\Bootstrap->run('', Array)\n#11 \/var\/www\/localhost\/www\/html\/vendor\/typo3\/cms\/typo3\/sysext\/frontend\/Classes\/ContentObject\/ContentObjectRenderer.php(6341): call_user_func_array(Array, Array)\n#12 \/var\/www\/localhost\/www\/html\/vendor\/typo3\/cms\/typo3\/sysext\/frontend\/Classes\/ContentObject\/UserContentObject.php(41): TYPO3\\CMS\\Frontend\\ContentObject\\ContentObjectRenderer->callUserFunction('TYPO3\\\\CMS\\\\Extba...', Array, '')\n#13 \/var\/www\/localhost\/www\/html\/vendor\/typo3\/cms\/typo3\/sysext\/frontend\/Classes\/ContentObject\/ContentObjectRenderer.php(820): TYPO3\\CMS\\Frontend\\ContentObject\\UserContentObject->render(Array)\n#14 \/var\/www\/localhost\/www\/html\/vendor\/typo3\/cms\/typo3\/sysext\/frontend\/Classes\/ContentObject\/ContentObjectRenderer.php(736): TYPO3\\CMS\\Frontend\\ContentObject\\ContentObjectRenderer->render(Object(TYPO3\\CMS\\Frontend\\ContentObject\\UserContentObject), Array)\n#15 \/var\/www\/localhost\/www\/html\/vendor\/typo3\/cms\/typo3\/sysext\/frontend\/Classes\/Controller\/TypoScriptFrontendController.php(3528): TYPO3\\CMS\\Frontend\\ContentObject\\ContentObjectRenderer->cObjGetSingle('USER', Array)\n#16 \/var\/www\/localhost\/www\/html\/vendor\/typo3\/cms\/typo3\/sysext\/frontend\/Classes\/Controller\/TypoScriptFrontendController.php(3490): TYPO3\\CMS\\Frontend\\Controller\\TypoScriptFrontendController->INTincScript_process(Array)\n#17 \/var\/www\/localhost\/www\/html\/vendor\/typo3\/cms\/typo3\/sysext\/frontend\/Classes\/Controller\/TypoScriptFrontendController.php(3457): TYPO3\\CMS\\Frontend\\Controller\\TypoScriptFrontendController->recursivelyReplaceIntPlaceholdersInContent()\n#18 \/var\/www\/localhost\/www\/html\/vendor\/typo3\/cms\/typo3\/sysext\/frontend\/Classes\/Http\/RequestHandler.php(226): TYPO3\\CMS\\Frontend\\Controller\\TypoScriptFrontendController->INTincScript()\n#19 \/var\/www\/localhost\/www\/html\/vendor\/typo3\/cms\/typo3\/sysext\/core\/Classes\/Core\/Bootstrap.php(316): TYPO3\\CMS\\Frontend\\Http\\RequestHandler->handleRequest(Object(TYPO3\\CMS\\Core\\Http\\ServerRequest))\n#20 \/var\/www\/localhost\/www\/html\/vendor\/typo3\/cms\/typo3\/sysext\/frontend\/Classes\/Http\/Application.php(79): TYPO3\\CMS\\Core\\Core\\Bootstrap->handleRequest(Object(TYPO3\\CMS\\Core\\Http\\ServerRequest))\n#21 \/var\/www\/localhost\/www\/html\/vendor\/typo3\/cms\/typo3\/sysext\/frontend\/Resources\/Private\/Php\/frontend.php(23): TYPO3\\CMS\\Frontend\\Http\\Application->run()\n#22 \/var\/www\/localhost\/www\/html\/vendor\/typo3\/cms\/typo3\/sysext\/frontend\/Resources\/Private\/Php\/frontend.php(24): {closure}()\n#23 \/var\/www\/localhost\/www\/html\/vendor\/typo3\/cms\/index.php(3): require('\/var\/www\/localh...')\n#24 {main}\n\nNext TYPO3\\CMS\\Extbase\\Object\\Container\\Exception\\UnknownObjectException: Could not analyse class: \"Test\\Employee\\Controller\\PersonController\" maybe not loaded or no autoloader? Class Test\\Employee\\Controller\\PersonController does not exist in \/var\/www\/localhost\/www\/html\/vendor\/typo3\/cms\/typo3\/sysext\/extbase\/Classes\/Object\/Container\/ClassInfoFactory.php:37\nStack trace:\n#0 \/var\/www\/localhost\/www\/html\/vendor\/typo3\/cms\/typo3\/sysext\/extbase\/Classes\/Object\/Container\/Container.php(347): TYPO3\\CMS\\Extbase\\Object\\Container\\ClassInfoFactory->buildClassInfoFromClassName('Test\\\\Employee\\\\C...')\n#1 \/var\/www\/localhost\/www\/html\/vendor\/typo3\/cms\/typo3\/sysext\/extbase\/Classes\/Object\/Container\/Container.php(173): TYPO3\\CMS\\Extbase\\Object\\Container\\Container->getClassInfo('Test\\\\Employee\\\\C...')\n#2 \/var\/www\/localhost\/www\/html\/vendor\/typo3\/cms\/typo3\/sysext\/extbase\/Classes\/Object\/Container\/Container.php(126): TYPO3\\CMS\\Extbase\\Object\\Container\\Container->getInstanceInternal('Test\\\\Employee\\\\C...', Array)\n#3 \/var\/www\/localhost\/www\/html\/vendor\/typo3\/cms\/typo3\/sysext\/extbase\/Classes\/Object\/ObjectManager.php(98): TYPO3\\CMS\\Extbase\\Object\\Container\\Container->getInstance('Test\\\\Employee\\\\C...', Array)\n#4 \/var\/www\/localhost\/www\/html\/vendor\/typo3\/cms\/typo3\/sysext\/extbase\/Classes\/Mvc\/Dispatcher.php(114): TYPO3\\CMS\\Extbase\\Object\\ObjectManager->get('Test\\\\Employee\\\\C...')\n#5 \/var\/www\/localhost\/www\/html\/vendor\/typo3\/cms\/typo3\/sysext\/extbase\/Classes\/Mvc\/Dispatcher.php(83): TYPO3\\CMS\\Extbase\\Mvc\\Dispatcher->resolveController(Object(TYPO3\\CMS\\Extbase\\Mvc\\Web\\Request))\n#6 \/var\/www\/localhost\/www\/html\/vendor\/typo3\/cms\/typo3\/sysext\/extbase\/Classes\/Mvc\/Web\/FrontendRequestHandler.php(91): TYPO3\\CMS\\Extbase\\Mvc\\Dispatcher->dispatch(Object(TYPO3\\CMS\\Extbase\\Mvc\\Web\\Request), Object(TYPO3\\CMS\\Extbase\\Mvc\\Web\\Response))\n#7 \/var\/www\/localhost\/www\/html\/vendor\/typo3\/cms\/typo3\/sysext\/extbase\/Classes\/Core\/Bootstrap.php(199): TYPO3\\CMS\\Extbase\\Mvc\\Web\\FrontendRequestHandler->handleRequest()\n#8 \/var\/www\/localhost\/www\/html\/vendor\/typo3\/cms\/typo3\/sysext\/extbase\/Classes\/Core\/Bootstrap.php(186): TYPO3\\CMS\\Extbase\\Core\\Bootstrap->handleRequest()\n#9 [internal function]: TYPO3\\CMS\\Extbase\\Core\\Bootstrap->run('', Array)\n#10 \/var\/www\/localhost\/www\/html\/vendor\/typo3\/cms\/typo3\/sysext\/frontend\/Classes\/ContentObject\/ContentObjectRenderer.php(6341): call_user_func_array(Array, Array)\n#11 \/var\/www\/localhost\/www\/html\/vendor\/typo3\/cms\/typo3\/sysext\/frontend\/Classes\/ContentObject\/UserContentObject.php(41): TYPO3\\CMS\\Frontend\\ContentObject\\ContentObjectRenderer->callUserFunction('TYPO3\\\\CMS\\\\Extba...', Array, '')\n#12 \/var\/www\/localhost\/www\/html\/vendor\/typo3\/cms\/typo3\/sysext\/frontend\/Classes\/ContentObject\/ContentObjectRenderer.php(820): TYPO3\\CMS\\Frontend\\ContentObject\\UserContentObject->render(Array)\n#13 \/var\/www\/localhost\/www\/html\/vendor\/typo3\/cms\/typo3\/sysext\/frontend\/Classes\/ContentObject\/ContentObjectRenderer.php(736): TYPO3\\CMS\\Frontend\\ContentObject\\ContentObjectRenderer->render(Object(TYPO3\\CMS\\Frontend\\ContentObject\\UserContentObject), Array)\n#14 \/var\/www\/localhost\/www\/html\/vendor\/typo3\/cms\/typo3\/sysext\/frontend\/Classes\/Controller\/TypoScriptFrontendController.php(3528): TYPO3\\CMS\\Frontend\\ContentObject\\ContentObjectRenderer->cObjGetSingle('USER', Array)\n#15 \/var\/www\/localhost\/www\/html\/vendor\/typo3\/cms\/typo3\/sysext\/frontend\/Classes\/Controller\/TypoScriptFrontendController.php(3490): TYPO3\\CMS\\Frontend\\Controller\\TypoScriptFrontendController->INTincScript_process(Array)\n#16 \/var\/www\/localhost\/www\/html\/vendor\/typo3\/cms\/typo3\/sysext\/frontend\/Classes\/Controller\/TypoScriptFrontendController.php(3457): TYPO3\\CMS\\Frontend\\Controller\\TypoScriptFrontendController->recursivelyReplaceIntPlaceholdersInContent()\n#17 \/var\/www\/localhost\/www\/html\/vendor\/typo3\/cms\/typo3\/sysext\/frontend\/Classes\/Http\/RequestHandler.php(226): TYPO3\\CMS\\Frontend\\Controller\\TypoScriptFrontendController->INTincScript()\n#18 \/var\/www\/localhost\/www\/html\/vendor\/typo3\/cms\/typo3\/sysext\/core\/Classes\/Core\/Bootstrap.php(316): TYPO3\\CMS\\Frontend\\Http\\RequestHandler->handleRequest(Object(TYPO3\\CMS\\Core\\Http\\ServerRequest))\n#19 \/var\/www\/localhost\/www\/html\/vendor\/typo3\/cms\/typo3\/sysext\/frontend\/Classes\/Http\/Application.php(79): TYPO3\\CMS\\Core\\Core\\Bootstrap->handleRequest(Object(TYPO3\\CMS\\Core\\Http\\ServerRequest))\n#20 \/var\/www\/localhost\/www\/html\/vendor\/typo3\/cms\/typo3\/sysext\/frontend\/Resources\/Private\/Php\/frontend.php(23): TYPO3\\CMS\\Frontend\\Http\\Application->run()\n#21 \/var\/www\/localhost\/www\/html\/vendor\/typo3\/cms\/typo3\/sysext\/frontend\/Resources\/Private\/Php\/frontend.php(24): {closure}()\n#22 \/var\/www\/localhost\/www\/html\/vendor\/typo3\/cms\/index.php(3): require('\/var\/www\/localh...')\n#23 {main}"}
Mon, 23 Jul 2018 15:24:15 +0200 [ALERT] request="6a8daa6f6068b" component="TYPO3.CMS.Frontend.ContentObject.Exception.ProductionExceptionHandler": Oops, an error occurred! Code: 20180723152412738c892b - {"exception":"ReflectionException: Class Test\\Employee\\Controller\\PersonController does not exist in \/var\/www\/localhost\/www\/html\/vendor\/typo3\/cms\/typo3\/sysext\/extbase\/Classes\/Object\/Container\/ClassInfoFactory.php:35\nStack trace:\n#0 \/var\/www\/localhost\/www\/html\/vendor\/typo3\/cms\/typo3\/sysext\/extbase\/Classes\/Object\/Container\/ClassInfoFactory.php(35): ReflectionClass->__construct('Test\\\\Employee\\\\C...')\n#1 \/var\/www\/localhost\/www\/html\/vendor\/typo3\/cms\/typo3\/sysext\/extbase\/Classes\/Object\/Container\/Container.php(347): TYPO3\\CMS\\Extbase\\Object\\Container\\ClassInfoFactory->buildClassInfoFromClassName('Test\\\\Employee\\\\C...')\n#2 \/var\/www\/localhost\/www\/html\/vendor\/typo3\/cms\/typo3\/sysext\/extbase\/Classes\/Object\/Container\/Container.php(173): TYPO3\\CMS\\Extbase\\Object\\Container\\Container->getClassInfo('Test\\\\Employee\\\\C...')\n#3 \/var\/www\/localhost\/www\/html\/vendor\/typo3\/cms\/typo3\/sysext\/extbase\/Classes\/Object\/Container\/Container.php(126): TYPO3\\CMS\\Extbase\\Object\\Container\\Container->getInstanceInternal('Test\\\\Employee\\\\C...', Array)\n#4 \/var\/www\/localhost\/www\/html\/vendor\/typo3\/cms\/typo3\/sysext\/extbase\/Classes\/Object\/ObjectManager.php(98): TYPO3\\CMS\\Extbase\\Object\\Container\\Container->getInstance('Test\\\\Employee\\\\C...', Array)\n#5 \/var\/www\/localhost\/www\/html\/vendor\/typo3\/cms\/typo3\/sysext\/extbase\/Classes\/Mvc\/Dispatcher.php(114): TYPO3\\CMS\\Extbase\\Object\\ObjectManager->get('Test\\\\Employee\\\\C...')\n#6 \/var\/www\/localhost\/www\/html\/vendor\/typo3\/cms\/typo3\/sysext\/extbase\/Classes\/Mvc\/Dispatcher.php(83): TYPO3\\CMS\\Extbase\\Mvc\\Dispatcher->resolveController(Object(TYPO3\\CMS\\Extbase\\Mvc\\Web\\Request))\n#7 \/var\/www\/localhost\/www\/html\/vendor\/typo3\/cms\/typo3\/sysext\/extbase\/Classes\/Mvc\/Web\/FrontendRequestHandler.php(91): TYPO3\\CMS\\Extbase\\Mvc\\Dispatcher->dispatch(Object(TYPO3\\CMS\\Extbase\\Mvc\\Web\\Request), Object(TYPO3\\CMS\\Extbase\\Mvc\\Web\\Response))\n#8 \/var\/www\/localhost\/www\/html\/vendor\/typo3\/cms\/typo3\/sysext\/extbase\/Classes\/Core\/Bootstrap.php(199): TYPO3\\CMS\\Extbase\\Mvc\\Web\\FrontendRequestHandler->handleRequest()\n#9 \/var\/www\/localhost\/www\/html\/vendor\/typo3\/cms\/typo3\/sysext\/extbase\/Classes\/Core\/Bootstrap.php(186): TYPO3\\CMS\\Extbase\\Core\\Bootstrap->handleRequest()\n#10 [internal function]: TYPO3\\CMS\\Extbase\\Core\\Bootstrap->run('', Array)\n#11 \/var\/www\/localhost\/www\/html\/vendor\/typo3\/cms\/typo3\/sysext\/frontend\/Classes\/ContentObject\/ContentObjectRenderer.php(6341): call_user_func_array(Array, Array)\n#12 \/var\/www\/localhost\/www\/html\/vendor\/typo3\/cms\/typo3\/sysext\/frontend\/Classes\/ContentObject\/UserContentObject.php(41): TYPO3\\CMS\\Frontend\\ContentObject\\ContentObjectRenderer->callUserFunction('TYPO3\\\\CMS\\\\Extba...', Array, '')\n#13 \/var\/www\/localhost\/www\/html\/vendor\/typo3\/cms\/typo3\/sysext\/frontend\/Classes\/ContentObject\/ContentObjectRenderer.php(820): TYPO3\\CMS\\Frontend\\ContentObject\\UserContentObject->render(Array)\n#14 \/var\/www\/localhost\/www\/html\/vendor\/typo3\/cms\/typo3\/sysext\/frontend\/Classes\/ContentObject\/ContentObjectRenderer.php(736): TYPO3\\CMS\\Frontend\\ContentObject\\ContentObjectRenderer->render(Object(TYPO3\\CMS\\Frontend\\ContentObject\\UserContentObject), Array)\n#15 \/var\/www\/localhost\/www\/html\/vendor\/typo3\/cms\/typo3\/sysext\/frontend\/Classes\/Controller\/TypoScriptFrontendController.php(3528): TYPO3\\CMS\\Frontend\\ContentObject\\ContentObjectRenderer->cObjGetSingle('USER', Array)\n#16 \/var\/www\/localhost\/www\/html\/vendor\/typo3\/cms\/typo3\/sysext\/frontend\/Classes\/Controller\/TypoScriptFrontendController.php(3490): TYPO3\\CMS\\Frontend\\Controller\\TypoScriptFrontendController->INTincScript_process(Array)\n#17 \/var\/www\/localhost\/www\/html\/vendor\/typo3\/cms\/typo3\/sysext\/frontend\/Classes\/Controller\/TypoScriptFrontendController.php(3457): TYPO3\\CMS\\Frontend\\Controller\\TypoScriptFrontendController->recursivelyReplaceIntPlaceholdersInContent()\n#18 \/var\/www\/localhost\/www\/html\/vendor\/typo3\/cms\/typo3\/sysext\/frontend\/Classes\/Http\/RequestHandler.php(226): TYPO3\\CMS\\Frontend\\Controller\\TypoScriptFrontendController->INTincScript()\n#19 \/var\/www\/localhost\/www\/html\/vendor\/typo3\/cms\/typo3\/sysext\/core\/Classes\/Core\/Bootstrap.php(316): TYPO3\\CMS\\Frontend\\Http\\RequestHandler->handleRequest(Object(TYPO3\\CMS\\Core\\Http\\ServerRequest))\n#20 \/var\/www\/localhost\/www\/html\/vendor\/typo3\/cms\/typo3\/sysext\/frontend\/Classes\/Http\/Application.php(79): TYPO3\\CMS\\Core\\Core\\Bootstrap->handleRequest(Object(TYPO3\\CMS\\Core\\Http\\ServerRequest))\n#21 \/var\/www\/localhost\/www\/html\/vendor\/typo3\/cms\/typo3\/sysext\/frontend\/Resources\/Private\/Php\/frontend.php(23): TYPO3\\CMS\\Frontend\\Http\\Application->run()\n#22 \/var\/www\/localhost\/www\/html\/vendor\/typo3\/cms\/typo3\/sysext\/frontend\/Resources\/Private\/Php\/frontend.php(24): {closure}()\n#23 \/var\/www\/localhost\/www\/html\/vendor\/typo3\/cms\/index.php(3): require('\/var\/www\/localh...')\n#24 {main}\n\nNext TYPO3\\CMS\\Extbase\\Object\\Container\\Exception\\UnknownObjectException: Could not analyse class: \"Test\\Employee\\Controller\\PersonController\" maybe not loaded or no autoloader? Class Test\\Employee\\Controller\\PersonController does not exist in \/var\/www\/localhost\/www\/html\/vendor\/typo3\/cms\/typo3\/sysext\/extbase\/Classes\/Object\/Container\/ClassInfoFactory.php:37\nStack trace:\n#0 \/var\/www\/localhost\/www\/html\/vendor\/typo3\/cms\/typo3\/sysext\/extbase\/Classes\/Object\/Container\/Container.php(347): TYPO3\\CMS\\Extbase\\Object\\Container\\ClassInfoFactory->buildClassInfoFromClassName('Test\\\\Employee\\\\C...')\n#1 \/var\/www\/localhost\/www\/html\/vendor\/typo3\/cms\/typo3\/sysext\/extbase\/Classes\/Object\/Container\/Container.php(173): TYPO3\\CMS\\Extbase\\Object\\Container\\Container->getClassInfo('Test\\\\Employee\\\\C...')\n#2 \/var\/www\/localhost\/www\/html\/vendor\/typo3\/cms\/typo3\/sysext\/extbase\/Classes\/Object\/Container\/Container.php(126): TYPO3\\CMS\\Extbase\\Object\\Container\\Container->getInstanceInternal('Test\\\\Employee\\\\C...', Array)\n#3 \/var\/www\/localhost\/www\/html\/vendor\/typo3\/cms\/typo3\/sysext\/extbase\/Classes\/Object\/ObjectManager.php(98): TYPO3\\CMS\\Extbase\\Object\\Container\\Container->getInstance('Test\\\\Employee\\\\C...', Array)\n#4 \/var\/www\/localhost\/www\/html\/vendor\/typo3\/cms\/typo3\/sysext\/extbase\/Classes\/Mvc\/Dispatcher.php(114): TYPO3\\CMS\\Extbase\\Object\\ObjectManager->get('Test\\\\Employee\\\\C...')\n#5 \/var\/www\/localhost\/www\/html\/vendor\/typo3\/cms\/typo3\/sysext\/extbase\/Classes\/Mvc\/Dispatcher.php(83): TYPO3\\CMS\\Extbase\\Mvc\\Dispatcher->resolveController(Object(TYPO3\\CMS\\Extbase\\Mvc\\Web\\Request))\n#6 \/var\/www\/localhost\/www\/html\/vendor\/typo3\/cms\/typo3\/sysext\/extbase\/Classes\/Mvc\/Web\/FrontendRequestHandler.php(91): TYPO3\\CMS\\Extbase\\Mvc\\Dispatcher->dispatch(Object(TYPO3\\CMS\\Extbase\\Mvc\\Web\\Request), Object(TYPO3\\CMS\\Extbase\\Mvc\\Web\\Response))\n#7 \/var\/www\/localhost\/www\/html\/vendor\/typo3\/cms\/typo3\/sysext\/extbase\/Classes\/Core\/Bootstrap.php(199): TYPO3\\CMS\\Extbase\\Mvc\\Web\\FrontendRequestHandler->handleRequest()\n#8 \/var\/www\/localhost\/www\/html\/vendor\/typo3\/cms\/typo3\/sysext\/extbase\/Classes\/Core\/Bootstrap.php(186): TYPO3\\CMS\\Extbase\\Core\\Bootstrap->handleRequest()\n#9 [internal function]: TYPO3\\CMS\\Extbase\\Core\\Bootstrap->run('', Array)\n#10 \/var\/www\/localhost\/www\/html\/vendor\/typo3\/cms\/typo3\/sysext\/frontend\/Classes\/ContentObject\/ContentObjectRenderer.php(6341): call_user_func_array(Array, Array)\n#11 \/var\/www\/localhost\/www\/html\/vendor\/typo3\/cms\/typo3\/sysext\/frontend\/Classes\/ContentObject\/UserContentObject.php(41): TYPO3\\CMS\\Frontend\\ContentObject\\ContentObjectRenderer->callUserFunction('TYPO3\\\\CMS\\\\Extba...', Array, '')\n#12 \/var\/www\/localhost\/www\/html\/vendor\/typo3\/cms\/typo3\/sysext\/frontend\/Classes\/ContentObject\/ContentObjectRenderer.php(820): TYPO3\\CMS\\Frontend\\ContentObject\\UserContentObject->render(Array)\n#13 \/var\/www\/localhost\/www\/html\/vendor\/typo3\/cms\/typo3\/sysext\/frontend\/Classes\/ContentObject\/ContentObjectRenderer.php(736): TYPO3\\CMS\\Frontend\\ContentObject\\ContentObjectRenderer->render(Object(TYPO3\\CMS\\Frontend\\ContentObject\\UserContentObject), Array)\n#14 \/var\/www\/localhost\/www\/html\/vendor\/typo3\/cms\/typo3\/sysext\/frontend\/Classes\/Controller\/TypoScriptFrontendController.php(3528): TYPO3\\CMS\\Frontend\\ContentObject\\ContentObjectRenderer->cObjGetSingle('USER', Array)\n#15 \/var\/www\/localhost\/www\/html\/vendor\/typo3\/cms\/typo3\/sysext\/frontend\/Classes\/Controller\/TypoScriptFrontendController.php(3490): TYPO3\\CMS\\Frontend\\Controller\\TypoScriptFrontendController->INTincScript_process(Array)\n#16 \/var\/www\/localhost\/www\/html\/vendor\/typo3\/cms\/typo3\/sysext\/frontend\/Classes\/Controller\/TypoScriptFrontendController.php(3457): TYPO3\\CMS\\Frontend\\Controller\\TypoScriptFrontendController->recursivelyReplaceIntPlaceholdersInContent()\n#17 \/var\/www\/localhost\/www\/html\/vendor\/typo3\/cms\/typo3\/sysext\/frontend\/Classes\/Http\/RequestHandler.php(226): TYPO3\\CMS\\Frontend\\Controller\\TypoScriptFrontendController->INTincScript()\n#18 \/var\/www\/localhost\/www\/html\/vendor\/typo3\/cms\/typo3\/sysext\/core\/Classes\/Core\/Bootstrap.php(316): TYPO3\\CMS\\Frontend\\Http\\RequestHandler->handleRequest(Object(TYPO3\\CMS\\Core\\Http\\ServerRequest))\n#19 \/var\/www\/localhost\/www\/html\/vendor\/typo3\/cms\/typo3\/sysext\/frontend\/Classes\/Http\/Application.php(79): TYPO3\\CMS\\Core\\Core\\Bootstrap->handleRequest(Object(TYPO3\\CMS\\Core\\Http\\ServerRequest))\n#20 \/var\/www\/localhost\/www\/html\/vendor\/typo3\/cms\/typo3\/sysext\/frontend\/Resources\/Private\/Php\/frontend.php(23): TYPO3\\CMS\\Frontend\\Http\\Application->run()\n#21 \/var\/www\/localhost\/www\/html\/vendor\/typo3\/cms\/typo3\/sysext\/frontend\/Resources\/Private\/Php\/frontend.php(24): {closure}()\n#22 \/var\/www\/localhost\/www\/html\/vendor\/typo3\/cms\/index.php(3): require('\/var\/www\/localh...')\n#23 {main}"}
Mon, 23 Jul 2018 15:30:06 +0200 [WARNING] request="503603a9353c3" component="TYPO3.CMS.Core.Utility.ExtensionManagementUtility": TYPO3\CMS\Core\Category\CategoryRegistry: no category registered for table "pages". Key was already registered. 
Mon, 23 Jul 2018 15:30:06 +0200 [WARNING] request="503603a9353c3" component="TYPO3.CMS.Core.Utility.ExtensionManagementUtility": TYPO3\CMS\Core\Category\CategoryRegistry: no category registered for table "sys_file_metadata". Key was already registered. 
Mon, 23 Jul 2018 15:30:06 +0200 [WARNING] request="503603a9353c3" component="TYPO3.CMS.Core.Utility.ExtensionManagementUtility": TYPO3\CMS\Core\Category\CategoryRegistry: no category registered for table "tt_content". Key was already registered. 
Mon, 23 Jul 2018 15:33:28 +0200 [WARNING] request="7684294532692" component="TYPO3.CMS.Core.Utility.ExtensionManagementUtility": TYPO3\CMS\Core\Category\CategoryRegistry: no category registered for table "pages". Key was already registered. 
Mon, 23 Jul 2018 15:33:28 +0200 [WARNING] request="7684294532692" component="TYPO3.CMS.Core.Utility.ExtensionManagementUtility": TYPO3\CMS\Core\Category\CategoryRegistry: no category registered for table "sys_file_metadata". Key was already registered. 
Mon, 23 Jul 2018 15:33:28 +0200 [WARNING] request="7684294532692" component="TYPO3.CMS.Core.Utility.ExtensionManagementUtility": TYPO3\CMS\Core\Category\CategoryRegistry: no category registered for table "tt_content". Key was already registered. 
Mon, 23 Jul 2018 16:01:16 +0200 [WARNING] request="b62e75afac302" component="TYPO3.CMS.Core.Utility.ExtensionManagementUtility": TYPO3\CMS\Core\Category\CategoryRegistry: no category registered for table "pages". Key was already registered. 
Mon, 23 Jul 2018 16:01:16 +0200 [WARNING] request="b62e75afac302" component="TYPO3.CMS.Core.Utility.ExtensionManagementUtility": TYPO3\CMS\Core\Category\CategoryRegistry: no category registered for table "sys_file_metadata". Key was already registered. 
Mon, 23 Jul 2018 16:01:16 +0200 [WARNING] request="b62e75afac302" component="TYPO3.CMS.Core.Utility.ExtensionManagementUtility": TYPO3\CMS\Core\Category\CategoryRegistry: no category registered for table "tt_content". Key was already registered. 
Mon, 23 Jul 2018 16:34:33 +0200 [WARNING] request="3ab61e663d923" component="TYPO3.CMS.Core.Utility.ExtensionManagementUtility": TYPO3\CMS\Core\Category\CategoryRegistry: no category registered for table "pages". Key was already registered. 
Mon, 23 Jul 2018 16:34:33 +0200 [WARNING] request="3ab61e663d923" component="TYPO3.CMS.Core.Utility.ExtensionManagementUtility": TYPO3\CMS\Core\Category\CategoryRegistry: no category registered for table "sys_file_metadata". Key was already registered. 
Mon, 23 Jul 2018 16:34:33 +0200 [WARNING] request="3ab61e663d923" component="TYPO3.CMS.Core.Utility.ExtensionManagementUtility": TYPO3\CMS\Core\Category\CategoryRegistry: no category registered for table "tt_content". Key was already registered. 
Wed, 25 Jul 2018 08:50:23 +0200 [WARNING] request="2cae8f9a98d74" component="TYPO3.CMS.Core.Utility.ExtensionManagementUtility": TYPO3\CMS\Core\Category\CategoryRegistry: no category registered for table "pages". Key was already registered. 
Wed, 25 Jul 2018 08:50:23 +0200 [WARNING] request="2cae8f9a98d74" component="TYPO3.CMS.Core.Utility.ExtensionManagementUtility": TYPO3\CMS\Core\Category\CategoryRegistry: no category registered for table "sys_file_metadata". Key was already registered. 
Wed, 25 Jul 2018 08:50:23 +0200 [WARNING] request="2cae8f9a98d74" component="TYPO3.CMS.Core.Utility.ExtensionManagementUtility": TYPO3\CMS\Core\Category\CategoryRegistry: no category registered for table "tt_content". Key was already registered. 
Thu, 26 Jul 2018 11:13:32 +0200 [WARNING] request="ced2022ffffa0" component="TYPO3.CMS.Backend.Form.FormDataProvider.TcaInline": Record with uid 2 from table tx_employee_domain_model_skills not found - {"table":"tx_employee_domain_model_skills","uid":2,"exception":"TYPO3\\CMS\\Backend\\Form\\Exception\\DatabaseRecordException: Record with uid 2 from table tx_employee_domain_model_skills not found in \/var\/www\/localhost\/www\/html\/vendor\/typo3\/cms\/typo3\/sysext\/backend\/Classes\/Form\/FormDataProvider\/AbstractDatabaseRecordProvider.php:51\nStack trace:\n#0 \/var\/www\/localhost\/www\/html\/vendor\/typo3\/cms\/typo3\/sysext\/backend\/Classes\/Form\/FormDataProvider\/DatabaseEditRow.php(38): TYPO3\\CMS\\Backend\\Form\\FormDataProvider\\AbstractDatabaseRecordProvider->getRecordFromDatabase('tx_employee_dom...', 2)\n#1 \/var\/www\/localhost\/www\/html\/vendor\/typo3\/cms\/typo3\/sysext\/backend\/Classes\/Form\/FormDataGroup\/OrderedProviderList.php(59): TYPO3\\CMS\\Backend\\Form\\FormDataProvider\\DatabaseEditRow->addData(Array)\n#2 \/var\/www\/localhost\/www\/html\/vendor\/typo3\/cms\/typo3\/sysext\/backend\/Classes\/Form\/FormDataGroup\/TcaDatabaseRecord.php(39): TYPO3\\CMS\\Backend\\Form\\FormDataGroup\\OrderedProviderList->compile(Array)\n#3 \/var\/www\/localhost\/www\/html\/vendor\/typo3\/cms\/typo3\/sysext\/backend\/Classes\/Form\/FormDataCompiler.php(99): TYPO3\\CMS\\Backend\\Form\\FormDataGroup\\TcaDatabaseRecord->compile(Array)\n#4 \/var\/www\/localhost\/www\/html\/vendor\/typo3\/cms\/typo3\/sysext\/backend\/Classes\/Form\/FormDataProvider\/TcaInline.php(389): TYPO3\\CMS\\Backend\\Form\\FormDataCompiler->compile(Array)\n#5 \/var\/www\/localhost\/www\/html\/vendor\/typo3\/cms\/typo3\/sysext\/backend\/Classes\/Form\/FormDataProvider\/TcaInline.php(162): TYPO3\\CMS\\Backend\\Form\\FormDataProvider\\TcaInline->compileChild(Array, 'skills', 2)\n#6 \/var\/www\/localhost\/www\/html\/vendor\/typo3\/cms\/typo3\/sysext\/backend\/Classes\/Form\/FormDataProvider\/TcaInline.php(58): TYPO3\\CMS\\Backend\\Form\\FormDataProvider\\TcaInline->resolveRelatedRecords(Array, 'skills')\n#7 \/var\/www\/localhost\/www\/html\/vendor\/typo3\/cms\/typo3\/sysext\/backend\/Classes\/Form\/FormDataGroup\/OrderedProviderList.php(59): TYPO3\\CMS\\Backend\\Form\\FormDataProvider\\TcaInline->addData(Array)\n#8 \/var\/www\/localhost\/www\/html\/vendor\/typo3\/cms\/typo3\/sysext\/backend\/Classes\/Form\/FormDataGroup\/TcaDatabaseRecord.php(39): TYPO3\\CMS\\Backend\\Form\\FormDataGroup\\OrderedProviderList->compile(Array)\n#9 \/var\/www\/localhost\/www\/html\/vendor\/typo3\/cms\/typo3\/sysext\/backend\/Classes\/Form\/FormDataCompiler.php(99): TYPO3\\CMS\\Backend\\Form\\FormDataGroup\\TcaDatabaseRecord->compile(Array)\n#10 \/var\/www\/localhost\/www\/html\/vendor\/typo3\/cms\/typo3\/sysext\/backend\/Classes\/Controller\/EditDocumentController.php(1025): TYPO3\\CMS\\Backend\\Form\\FormDataCompiler->compile(Array)\n#11 \/var\/www\/localhost\/www\/html\/vendor\/typo3\/cms\/typo3\/sysext\/backend\/Classes\/Controller\/EditDocumentController.php(931): TYPO3\\CMS\\Backend\\Controller\\EditDocumentController->makeEditForm()\n#12 \/var\/www\/localhost\/www\/html\/vendor\/typo3\/cms\/typo3\/sysext\/backend\/Classes\/Controller\/EditDocumentController.php(2113): TYPO3\\CMS\\Backend\\Controller\\EditDocumentController->main()\n#13 [internal function]: TYPO3\\CMS\\Backend\\Controller\\EditDocumentController->mainAction(Object(TYPO3\\CMS\\Core\\Http\\ServerRequest), Object(TYPO3\\CMS\\Core\\Http\\Response))\n#14 \/var\/www\/localhost\/www\/html\/vendor\/typo3\/cms\/typo3\/sysext\/backend\/Classes\/Http\/RouteDispatcher.php(54): call_user_func_array(Array, Array)\n#15 \/var\/www\/localhost\/www\/html\/vendor\/typo3\/cms\/typo3\/sysext\/backend\/Classes\/Http\/RequestHandler.php(139): TYPO3\\CMS\\Backend\\Http\\RouteDispatcher->dispatch(Object(TYPO3\\CMS\\Core\\Http\\ServerRequest), Object(TYPO3\\CMS\\Core\\Http\\Response))\n#16 \/var\/www\/localhost\/www\/html\/vendor\/typo3\/cms\/typo3\/sysext\/backend\/Classes\/Http\/RequestHandler.php(72): TYPO3\\CMS\\Backend\\Http\\RequestHandler->dispatch(Object(TYPO3\\CMS\\Core\\Http\\ServerRequest))\n#17 \/var\/www\/localhost\/www\/html\/vendor\/typo3\/cms\/typo3\/sysext\/core\/Classes\/Core\/Bootstrap.php(316): TYPO3\\CMS\\Backend\\Http\\RequestHandler->handleRequest(Object(TYPO3\\CMS\\Core\\Http\\ServerRequest))\n#18 \/var\/www\/localhost\/www\/html\/vendor\/typo3\/cms\/typo3\/sysext\/backend\/Classes\/Http\/Application.php(92): TYPO3\\CMS\\Core\\Core\\Bootstrap->handleRequest(Object(TYPO3\\CMS\\Core\\Http\\ServerRequest))\n#19 \/var\/www\/localhost\/www\/html\/vendor\/typo3\/cms\/typo3\/sysext\/backend\/Resources\/Private\/Php\/backend.php(24): TYPO3\\CMS\\Backend\\Http\\Application->run()\n#20 \/var\/www\/localhost\/www\/html\/vendor\/typo3\/cms\/typo3\/sysext\/backend\/Resources\/Private\/Php\/backend.php(25): {closure}()\n#21 \/var\/www\/localhost\/www\/html\/vendor\/typo3\/cms\/typo3\/index.php(3): require('\/var\/www\/localh...')\n#22 {main}"}
Thu, 26 Jul 2018 11:13:40 +0200 [WARNING] request="f315b5b5f4d1c" component="TYPO3.CMS.Backend.Form.FormDataProvider.TcaInline": Record with uid 2 from table tx_employee_domain_model_skills not found - {"table":"tx_employee_domain_model_skills","uid":2,"exception":"TYPO3\\CMS\\Backend\\Form\\Exception\\DatabaseRecordException: Record with uid 2 from table tx_employee_domain_model_skills not found in \/var\/www\/localhost\/www\/html\/vendor\/typo3\/cms\/typo3\/sysext\/backend\/Classes\/Form\/FormDataProvider\/AbstractDatabaseRecordProvider.php:51\nStack trace:\n#0 \/var\/www\/localhost\/www\/html\/vendor\/typo3\/cms\/typo3\/sysext\/backend\/Classes\/Form\/FormDataProvider\/DatabaseEditRow.php(38): TYPO3\\CMS\\Backend\\Form\\FormDataProvider\\AbstractDatabaseRecordProvider->getRecordFromDatabase('tx_employee_dom...', 2)\n#1 \/var\/www\/localhost\/www\/html\/vendor\/typo3\/cms\/typo3\/sysext\/backend\/Classes\/Form\/FormDataGroup\/OrderedProviderList.php(59): TYPO3\\CMS\\Backend\\Form\\FormDataProvider\\DatabaseEditRow->addData(Array)\n#2 \/var\/www\/localhost\/www\/html\/vendor\/typo3\/cms\/typo3\/sysext\/backend\/Classes\/Form\/FormDataGroup\/TcaDatabaseRecord.php(39): TYPO3\\CMS\\Backend\\Form\\FormDataGroup\\OrderedProviderList->compile(Array)\n#3 \/var\/www\/localhost\/www\/html\/vendor\/typo3\/cms\/typo3\/sysext\/backend\/Classes\/Form\/FormDataCompiler.php(99): TYPO3\\CMS\\Backend\\Form\\FormDataGroup\\TcaDatabaseRecord->compile(Array)\n#4 \/var\/www\/localhost\/www\/html\/vendor\/typo3\/cms\/typo3\/sysext\/backend\/Classes\/Form\/FormDataProvider\/TcaInline.php(389): TYPO3\\CMS\\Backend\\Form\\FormDataCompiler->compile(Array)\n#5 \/var\/www\/localhost\/www\/html\/vendor\/typo3\/cms\/typo3\/sysext\/backend\/Classes\/Form\/FormDataProvider\/TcaInline.php(162): TYPO3\\CMS\\Backend\\Form\\FormDataProvider\\TcaInline->compileChild(Array, 'skills', 2)\n#6 \/var\/www\/localhost\/www\/html\/vendor\/typo3\/cms\/typo3\/sysext\/backend\/Classes\/Form\/FormDataProvider\/TcaInline.php(58): TYPO3\\CMS\\Backend\\Form\\FormDataProvider\\TcaInline->resolveRelatedRecords(Array, 'skills')\n#7 \/var\/www\/localhost\/www\/html\/vendor\/typo3\/cms\/typo3\/sysext\/backend\/Classes\/Form\/FormDataGroup\/OrderedProviderList.php(59): TYPO3\\CMS\\Backend\\Form\\FormDataProvider\\TcaInline->addData(Array)\n#8 \/var\/www\/localhost\/www\/html\/vendor\/typo3\/cms\/typo3\/sysext\/backend\/Classes\/Form\/FormDataGroup\/TcaDatabaseRecord.php(39): TYPO3\\CMS\\Backend\\Form\\FormDataGroup\\OrderedProviderList->compile(Array)\n#9 \/var\/www\/localhost\/www\/html\/vendor\/typo3\/cms\/typo3\/sysext\/backend\/Classes\/Form\/FormDataCompiler.php(99): TYPO3\\CMS\\Backend\\Form\\FormDataGroup\\TcaDatabaseRecord->compile(Array)\n#10 \/var\/www\/localhost\/www\/html\/vendor\/typo3\/cms\/typo3\/sysext\/backend\/Classes\/Controller\/EditDocumentController.php(1025): TYPO3\\CMS\\Backend\\Form\\FormDataCompiler->compile(Array)\n#11 \/var\/www\/localhost\/www\/html\/vendor\/typo3\/cms\/typo3\/sysext\/backend\/Classes\/Controller\/EditDocumentController.php(931): TYPO3\\CMS\\Backend\\Controller\\EditDocumentController->makeEditForm()\n#12 \/var\/www\/localhost\/www\/html\/vendor\/typo3\/cms\/typo3\/sysext\/backend\/Classes\/Controller\/EditDocumentController.php(2113): TYPO3\\CMS\\Backend\\Controller\\EditDocumentController->main()\n#13 [internal function]: TYPO3\\CMS\\Backend\\Controller\\EditDocumentController->mainAction(Object(TYPO3\\CMS\\Core\\Http\\ServerRequest), Object(TYPO3\\CMS\\Core\\Http\\Response))\n#14 \/var\/www\/localhost\/www\/html\/vendor\/typo3\/cms\/typo3\/sysext\/backend\/Classes\/Http\/RouteDispatcher.php(54): call_user_func_array(Array, Array)\n#15 \/var\/www\/localhost\/www\/html\/vendor\/typo3\/cms\/typo3\/sysext\/backend\/Classes\/Http\/RequestHandler.php(139): TYPO3\\CMS\\Backend\\Http\\RouteDispatcher->dispatch(Object(TYPO3\\CMS\\Core\\Http\\ServerRequest), Object(TYPO3\\CMS\\Core\\Http\\Response))\n#16 \/var\/www\/localhost\/www\/html\/vendor\/typo3\/cms\/typo3\/sysext\/backend\/Classes\/Http\/RequestHandler.php(72): TYPO3\\CMS\\Backend\\Http\\RequestHandler->dispatch(Object(TYPO3\\CMS\\Core\\Http\\ServerRequest))\n#17 \/var\/www\/localhost\/www\/html\/vendor\/typo3\/cms\/typo3\/sysext\/core\/Classes\/Core\/Bootstrap.php(316): TYPO3\\CMS\\Backend\\Http\\RequestHandler->handleRequest(Object(TYPO3\\CMS\\Core\\Http\\ServerRequest))\n#18 \/var\/www\/localhost\/www\/html\/vendor\/typo3\/cms\/typo3\/sysext\/backend\/Classes\/Http\/Application.php(92): TYPO3\\CMS\\Core\\Core\\Bootstrap->handleRequest(Object(TYPO3\\CMS\\Core\\Http\\ServerRequest))\n#19 \/var\/www\/localhost\/www\/html\/vendor\/typo3\/cms\/typo3\/sysext\/backend\/Resources\/Private\/Php\/backend.php(24): TYPO3\\CMS\\Backend\\Http\\Application->run()\n#20 \/var\/www\/localhost\/www\/html\/vendor\/typo3\/cms\/typo3\/sysext\/backend\/Resources\/Private\/Php\/backend.php(25): {closure}()\n#21 \/var\/www\/localhost\/www\/html\/vendor\/typo3\/cms\/typo3\/index.php(3): require('\/var\/www\/localh...')\n#22 {main}"}
Thu, 26 Jul 2018 11:14:01 +0200 [WARNING] request="ccbbaa32227a3" component="TYPO3.CMS.Backend.Form.FormDataProvider.TcaInline": Record with uid 2 from table tx_employee_domain_model_skills not found - {"table":"tx_employee_domain_model_skills","uid":2,"exception":"TYPO3\\CMS\\Backend\\Form\\Exception\\DatabaseRecordException: Record with uid 2 from table tx_employee_domain_model_skills not found in \/var\/www\/localhost\/www\/html\/vendor\/typo3\/cms\/typo3\/sysext\/backend\/Classes\/Form\/FormDataProvider\/AbstractDatabaseRecordProvider.php:51\nStack trace:\n#0 \/var\/www\/localhost\/www\/html\/vendor\/typo3\/cms\/typo3\/sysext\/backend\/Classes\/Form\/FormDataProvider\/DatabaseEditRow.php(38): TYPO3\\CMS\\Backend\\Form\\FormDataProvider\\AbstractDatabaseRecordProvider->getRecordFromDatabase('tx_employee_dom...', 2)\n#1 \/var\/www\/localhost\/www\/html\/vendor\/typo3\/cms\/typo3\/sysext\/backend\/Classes\/Form\/FormDataGroup\/OrderedProviderList.php(59): TYPO3\\CMS\\Backend\\Form\\FormDataProvider\\DatabaseEditRow->addData(Array)\n#2 \/var\/www\/localhost\/www\/html\/vendor\/typo3\/cms\/typo3\/sysext\/backend\/Classes\/Form\/FormDataGroup\/TcaDatabaseRecord.php(39): TYPO3\\CMS\\Backend\\Form\\FormDataGroup\\OrderedProviderList->compile(Array)\n#3 \/var\/www\/localhost\/www\/html\/vendor\/typo3\/cms\/typo3\/sysext\/backend\/Classes\/Form\/FormDataCompiler.php(99): TYPO3\\CMS\\Backend\\Form\\FormDataGroup\\TcaDatabaseRecord->compile(Array)\n#4 \/var\/www\/localhost\/www\/html\/vendor\/typo3\/cms\/typo3\/sysext\/backend\/Classes\/Form\/FormDataProvider\/TcaInline.php(389): TYPO3\\CMS\\Backend\\Form\\FormDataCompiler->compile(Array)\n#5 \/var\/www\/localhost\/www\/html\/vendor\/typo3\/cms\/typo3\/sysext\/backend\/Classes\/Form\/FormDataProvider\/TcaInline.php(162): TYPO3\\CMS\\Backend\\Form\\FormDataProvider\\TcaInline->compileChild(Array, 'skills', 2)\n#6 \/var\/www\/localhost\/www\/html\/vendor\/typo3\/cms\/typo3\/sysext\/backend\/Classes\/Form\/FormDataProvider\/TcaInline.php(58): TYPO3\\CMS\\Backend\\Form\\FormDataProvider\\TcaInline->resolveRelatedRecords(Array, 'skills')\n#7 \/var\/www\/localhost\/www\/html\/vendor\/typo3\/cms\/typo3\/sysext\/backend\/Classes\/Form\/FormDataGroup\/OrderedProviderList.php(59): TYPO3\\CMS\\Backend\\Form\\FormDataProvider\\TcaInline->addData(Array)\n#8 \/var\/www\/localhost\/www\/html\/vendor\/typo3\/cms\/typo3\/sysext\/backend\/Classes\/Form\/FormDataGroup\/TcaDatabaseRecord.php(39): TYPO3\\CMS\\Backend\\Form\\FormDataGroup\\OrderedProviderList->compile(Array)\n#9 \/var\/www\/localhost\/www\/html\/vendor\/typo3\/cms\/typo3\/sysext\/backend\/Classes\/Form\/FormDataCompiler.php(99): TYPO3\\CMS\\Backend\\Form\\FormDataGroup\\TcaDatabaseRecord->compile(Array)\n#10 \/var\/www\/localhost\/www\/html\/vendor\/typo3\/cms\/typo3\/sysext\/backend\/Classes\/Controller\/EditDocumentController.php(1025): TYPO3\\CMS\\Backend\\Form\\FormDataCompiler->compile(Array)\n#11 \/var\/www\/localhost\/www\/html\/vendor\/typo3\/cms\/typo3\/sysext\/backend\/Classes\/Controller\/EditDocumentController.php(931): TYPO3\\CMS\\Backend\\Controller\\EditDocumentController->makeEditForm()\n#12 \/var\/www\/localhost\/www\/html\/vendor\/typo3\/cms\/typo3\/sysext\/backend\/Classes\/Controller\/EditDocumentController.php(2113): TYPO3\\CMS\\Backend\\Controller\\EditDocumentController->main()\n#13 [internal function]: TYPO3\\CMS\\Backend\\Controller\\EditDocumentController->mainAction(Object(TYPO3\\CMS\\Core\\Http\\ServerRequest), Object(TYPO3\\CMS\\Core\\Http\\Response))\n#14 \/var\/www\/localhost\/www\/html\/vendor\/typo3\/cms\/typo3\/sysext\/backend\/Classes\/Http\/RouteDispatcher.php(54): call_user_func_array(Array, Array)\n#15 \/var\/www\/localhost\/www\/html\/vendor\/typo3\/cms\/typo3\/sysext\/backend\/Classes\/Http\/RequestHandler.php(139): TYPO3\\CMS\\Backend\\Http\\RouteDispatcher->dispatch(Object(TYPO3\\CMS\\Core\\Http\\ServerRequest), Object(TYPO3\\CMS\\Core\\Http\\Response))\n#16 \/var\/www\/localhost\/www\/html\/vendor\/typo3\/cms\/typo3\/sysext\/backend\/Classes\/Http\/RequestHandler.php(72): TYPO3\\CMS\\Backend\\Http\\RequestHandler->dispatch(Object(TYPO3\\CMS\\Core\\Http\\ServerRequest))\n#17 \/var\/www\/localhost\/www\/html\/vendor\/typo3\/cms\/typo3\/sysext\/core\/Classes\/Core\/Bootstrap.php(316): TYPO3\\CMS\\Backend\\Http\\RequestHandler->handleRequest(Object(TYPO3\\CMS\\Core\\Http\\ServerRequest))\n#18 \/var\/www\/localhost\/www\/html\/vendor\/typo3\/cms\/typo3\/sysext\/backend\/Classes\/Http\/Application.php(92): TYPO3\\CMS\\Core\\Core\\Bootstrap->handleRequest(Object(TYPO3\\CMS\\Core\\Http\\ServerRequest))\n#19 \/var\/www\/localhost\/www\/html\/vendor\/typo3\/cms\/typo3\/sysext\/backend\/Resources\/Private\/Php\/backend.php(24): TYPO3\\CMS\\Backend\\Http\\Application->run()\n#20 \/var\/www\/localhost\/www\/html\/vendor\/typo3\/cms\/typo3\/sysext\/backend\/Resources\/Private\/Php\/backend.php(25): {closure}()\n#21 \/var\/www\/localhost\/www\/html\/vendor\/typo3\/cms\/typo3\/index.php(3): require('\/var\/www\/localh...')\n#22 {main}"}
Thu, 26 Jul 2018 11:15:11 +0200 [WARNING] request="8372786e04298" component="TYPO3.CMS.Backend.Form.FormDataProvider.TcaInline": Record with uid 2 from table tx_employee_domain_model_skills not found - {"table":"tx_employee_domain_model_skills","uid":2,"exception":"TYPO3\\CMS\\Backend\\Form\\Exception\\DatabaseRecordException: Record with uid 2 from table tx_employee_domain_model_skills not found in \/var\/www\/localhost\/www\/html\/vendor\/typo3\/cms\/typo3\/sysext\/backend\/Classes\/Form\/FormDataProvider\/AbstractDatabaseRecordProvider.php:51\nStack trace:\n#0 \/var\/www\/localhost\/www\/html\/vendor\/typo3\/cms\/typo3\/sysext\/backend\/Classes\/Form\/FormDataProvider\/DatabaseEditRow.php(38): TYPO3\\CMS\\Backend\\Form\\FormDataProvider\\AbstractDatabaseRecordProvider->getRecordFromDatabase('tx_employee_dom...', 2)\n#1 \/var\/www\/localhost\/www\/html\/vendor\/typo3\/cms\/typo3\/sysext\/backend\/Classes\/Form\/FormDataGroup\/OrderedProviderList.php(59): TYPO3\\CMS\\Backend\\Form\\FormDataProvider\\DatabaseEditRow->addData(Array)\n#2 \/var\/www\/localhost\/www\/html\/vendor\/typo3\/cms\/typo3\/sysext\/backend\/Classes\/Form\/FormDataGroup\/TcaDatabaseRecord.php(39): TYPO3\\CMS\\Backend\\Form\\FormDataGroup\\OrderedProviderList->compile(Array)\n#3 \/var\/www\/localhost\/www\/html\/vendor\/typo3\/cms\/typo3\/sysext\/backend\/Classes\/Form\/FormDataCompiler.php(99): TYPO3\\CMS\\Backend\\Form\\FormDataGroup\\TcaDatabaseRecord->compile(Array)\n#4 \/var\/www\/localhost\/www\/html\/vendor\/typo3\/cms\/typo3\/sysext\/backend\/Classes\/Form\/FormDataProvider\/TcaInline.php(389): TYPO3\\CMS\\Backend\\Form\\FormDataCompiler->compile(Array)\n#5 \/var\/www\/localhost\/www\/html\/vendor\/typo3\/cms\/typo3\/sysext\/backend\/Classes\/Form\/FormDataProvider\/TcaInline.php(162): TYPO3\\CMS\\Backend\\Form\\FormDataProvider\\TcaInline->compileChild(Array, 'skills', 2)\n#6 \/var\/www\/localhost\/www\/html\/vendor\/typo3\/cms\/typo3\/sysext\/backend\/Classes\/Form\/FormDataProvider\/TcaInline.php(58): TYPO3\\CMS\\Backend\\Form\\FormDataProvider\\TcaInline->resolveRelatedRecords(Array, 'skills')\n#7 \/var\/www\/localhost\/www\/html\/vendor\/typo3\/cms\/typo3\/sysext\/backend\/Classes\/Form\/FormDataGroup\/OrderedProviderList.php(59): TYPO3\\CMS\\Backend\\Form\\FormDataProvider\\TcaInline->addData(Array)\n#8 \/var\/www\/localhost\/www\/html\/vendor\/typo3\/cms\/typo3\/sysext\/backend\/Classes\/Form\/FormDataGroup\/TcaDatabaseRecord.php(39): TYPO3\\CMS\\Backend\\Form\\FormDataGroup\\OrderedProviderList->compile(Array)\n#9 \/var\/www\/localhost\/www\/html\/vendor\/typo3\/cms\/typo3\/sysext\/backend\/Classes\/Form\/FormDataCompiler.php(99): TYPO3\\CMS\\Backend\\Form\\FormDataGroup\\TcaDatabaseRecord->compile(Array)\n#10 \/var\/www\/localhost\/www\/html\/vendor\/typo3\/cms\/typo3\/sysext\/backend\/Classes\/Controller\/EditDocumentController.php(1025): TYPO3\\CMS\\Backend\\Form\\FormDataCompiler->compile(Array)\n#11 \/var\/www\/localhost\/www\/html\/vendor\/typo3\/cms\/typo3\/sysext\/backend\/Classes\/Controller\/EditDocumentController.php(931): TYPO3\\CMS\\Backend\\Controller\\EditDocumentController->makeEditForm()\n#12 \/var\/www\/localhost\/www\/html\/vendor\/typo3\/cms\/typo3\/sysext\/backend\/Classes\/Controller\/EditDocumentController.php(2113): TYPO3\\CMS\\Backend\\Controller\\EditDocumentController->main()\n#13 [internal function]: TYPO3\\CMS\\Backend\\Controller\\EditDocumentController->mainAction(Object(TYPO3\\CMS\\Core\\Http\\ServerRequest), Object(TYPO3\\CMS\\Core\\Http\\Response))\n#14 \/var\/www\/localhost\/www\/html\/vendor\/typo3\/cms\/typo3\/sysext\/backend\/Classes\/Http\/RouteDispatcher.php(54): call_user_func_array(Array, Array)\n#15 \/var\/www\/localhost\/www\/html\/vendor\/typo3\/cms\/typo3\/sysext\/backend\/Classes\/Http\/RequestHandler.php(139): TYPO3\\CMS\\Backend\\Http\\RouteDispatcher->dispatch(Object(TYPO3\\CMS\\Core\\Http\\ServerRequest), Object(TYPO3\\CMS\\Core\\Http\\Response))\n#16 \/var\/www\/localhost\/www\/html\/vendor\/typo3\/cms\/typo3\/sysext\/backend\/Classes\/Http\/RequestHandler.php(72): TYPO3\\CMS\\Backend\\Http\\RequestHandler->dispatch(Object(TYPO3\\CMS\\Core\\Http\\ServerRequest))\n#17 \/var\/www\/localhost\/www\/html\/vendor\/typo3\/cms\/typo3\/sysext\/core\/Classes\/Core\/Bootstrap.php(316): TYPO3\\CMS\\Backend\\Http\\RequestHandler->handleRequest(Object(TYPO3\\CMS\\Core\\Http\\ServerRequest))\n#18 \/var\/www\/localhost\/www\/html\/vendor\/typo3\/cms\/typo3\/sysext\/backend\/Classes\/Http\/Application.php(92): TYPO3\\CMS\\Core\\Core\\Bootstrap->handleRequest(Object(TYPO3\\CMS\\Core\\Http\\ServerRequest))\n#19 \/var\/www\/localhost\/www\/html\/vendor\/typo3\/cms\/typo3\/sysext\/backend\/Resources\/Private\/Php\/backend.php(24): TYPO3\\CMS\\Backend\\Http\\Application->run()\n#20 \/var\/www\/localhost\/www\/html\/vendor\/typo3\/cms\/typo3\/sysext\/backend\/Resources\/Private\/Php\/backend.php(25): {closure}()\n#21 \/var\/www\/localhost\/www\/html\/vendor\/typo3\/cms\/typo3\/index.php(3): require('\/var\/www\/localh...')\n#22 {main}"}
Thu, 26 Jul 2018 11:15:25 +0200 [WARNING] request="fbda58989bc34" component="TYPO3.CMS.Backend.Form.FormDataProvider.TcaInline": Record with uid 2 from table tx_employee_domain_model_skills not found - {"table":"tx_employee_domain_model_skills","uid":2,"exception":"TYPO3\\CMS\\Backend\\Form\\Exception\\DatabaseRecordException: Record with uid 2 from table tx_employee_domain_model_skills not found in \/var\/www\/localhost\/www\/html\/vendor\/typo3\/cms\/typo3\/sysext\/backend\/Classes\/Form\/FormDataProvider\/AbstractDatabaseRecordProvider.php:51\nStack trace:\n#0 \/var\/www\/localhost\/www\/html\/vendor\/typo3\/cms\/typo3\/sysext\/backend\/Classes\/Form\/FormDataProvider\/DatabaseEditRow.php(38): TYPO3\\CMS\\Backend\\Form\\FormDataProvider\\AbstractDatabaseRecordProvider->getRecordFromDatabase('tx_employee_dom...', 2)\n#1 \/var\/www\/localhost\/www\/html\/vendor\/typo3\/cms\/typo3\/sysext\/backend\/Classes\/Form\/FormDataGroup\/OrderedProviderList.php(59): TYPO3\\CMS\\Backend\\Form\\FormDataProvider\\DatabaseEditRow->addData(Array)\n#2 \/var\/www\/localhost\/www\/html\/vendor\/typo3\/cms\/typo3\/sysext\/backend\/Classes\/Form\/FormDataGroup\/TcaDatabaseRecord.php(39): TYPO3\\CMS\\Backend\\Form\\FormDataGroup\\OrderedProviderList->compile(Array)\n#3 \/var\/www\/localhost\/www\/html\/vendor\/typo3\/cms\/typo3\/sysext\/backend\/Classes\/Form\/FormDataCompiler.php(99): TYPO3\\CMS\\Backend\\Form\\FormDataGroup\\TcaDatabaseRecord->compile(Array)\n#4 \/var\/www\/localhost\/www\/html\/vendor\/typo3\/cms\/typo3\/sysext\/backend\/Classes\/Form\/FormDataProvider\/TcaInline.php(389): TYPO3\\CMS\\Backend\\Form\\FormDataCompiler->compile(Array)\n#5 \/var\/www\/localhost\/www\/html\/vendor\/typo3\/cms\/typo3\/sysext\/backend\/Classes\/Form\/FormDataProvider\/TcaInline.php(162): TYPO3\\CMS\\Backend\\Form\\FormDataProvider\\TcaInline->compileChild(Array, 'skills', 2)\n#6 \/var\/www\/localhost\/www\/html\/vendor\/typo3\/cms\/typo3\/sysext\/backend\/Classes\/Form\/FormDataProvider\/TcaInline.php(58): TYPO3\\CMS\\Backend\\Form\\FormDataProvider\\TcaInline->resolveRelatedRecords(Array, 'skills')\n#7 \/var\/www\/localhost\/www\/html\/vendor\/typo3\/cms\/typo3\/sysext\/backend\/Classes\/Form\/FormDataGroup\/OrderedProviderList.php(59): TYPO3\\CMS\\Backend\\Form\\FormDataProvider\\TcaInline->addData(Array)\n#8 \/var\/www\/localhost\/www\/html\/vendor\/typo3\/cms\/typo3\/sysext\/backend\/Classes\/Form\/FormDataGroup\/TcaDatabaseRecord.php(39): TYPO3\\CMS\\Backend\\Form\\FormDataGroup\\OrderedProviderList->compile(Array)\n#9 \/var\/www\/localhost\/www\/html\/vendor\/typo3\/cms\/typo3\/sysext\/backend\/Classes\/Form\/FormDataCompiler.php(99): TYPO3\\CMS\\Backend\\Form\\FormDataGroup\\TcaDatabaseRecord->compile(Array)\n#10 \/var\/www\/localhost\/www\/html\/vendor\/typo3\/cms\/typo3\/sysext\/backend\/Classes\/Controller\/EditDocumentController.php(1025): TYPO3\\CMS\\Backend\\Form\\FormDataCompiler->compile(Array)\n#11 \/var\/www\/localhost\/www\/html\/vendor\/typo3\/cms\/typo3\/sysext\/backend\/Classes\/Controller\/EditDocumentController.php(931): TYPO3\\CMS\\Backend\\Controller\\EditDocumentController->makeEditForm()\n#12 \/var\/www\/localhost\/www\/html\/vendor\/typo3\/cms\/typo3\/sysext\/backend\/Classes\/Controller\/EditDocumentController.php(2113): TYPO3\\CMS\\Backend\\Controller\\EditDocumentController->main()\n#13 [internal function]: TYPO3\\CMS\\Backend\\Controller\\EditDocumentController->mainAction(Object(TYPO3\\CMS\\Core\\Http\\ServerRequest), Object(TYPO3\\CMS\\Core\\Http\\Response))\n#14 \/var\/www\/localhost\/www\/html\/vendor\/typo3\/cms\/typo3\/sysext\/backend\/Classes\/Http\/RouteDispatcher.php(54): call_user_func_array(Array, Array)\n#15 \/var\/www\/localhost\/www\/html\/vendor\/typo3\/cms\/typo3\/sysext\/backend\/Classes\/Http\/RequestHandler.php(139): TYPO3\\CMS\\Backend\\Http\\RouteDispatcher->dispatch(Object(TYPO3\\CMS\\Core\\Http\\ServerRequest), Object(TYPO3\\CMS\\Core\\Http\\Response))\n#16 \/var\/www\/localhost\/www\/html\/vendor\/typo3\/cms\/typo3\/sysext\/backend\/Classes\/Http\/RequestHandler.php(72): TYPO3\\CMS\\Backend\\Http\\RequestHandler->dispatch(Object(TYPO3\\CMS\\Core\\Http\\ServerRequest))\n#17 \/var\/www\/localhost\/www\/html\/vendor\/typo3\/cms\/typo3\/sysext\/core\/Classes\/Core\/Bootstrap.php(316): TYPO3\\CMS\\Backend\\Http\\RequestHandler->handleRequest(Object(TYPO3\\CMS\\Core\\Http\\ServerRequest))\n#18 \/var\/www\/localhost\/www\/html\/vendor\/typo3\/cms\/typo3\/sysext\/backend\/Classes\/Http\/Application.php(92): TYPO3\\CMS\\Core\\Core\\Bootstrap->handleRequest(Object(TYPO3\\CMS\\Core\\Http\\ServerRequest))\n#19 \/var\/www\/localhost\/www\/html\/vendor\/typo3\/cms\/typo3\/sysext\/backend\/Resources\/Private\/Php\/backend.php(24): TYPO3\\CMS\\Backend\\Http\\Application->run()\n#20 \/var\/www\/localhost\/www\/html\/vendor\/typo3\/cms\/typo3\/sysext\/backend\/Resources\/Private\/Php\/backend.php(25): {closure}()\n#21 \/var\/www\/localhost\/www\/html\/vendor\/typo3\/cms\/typo3\/index.php(3): require('\/var\/www\/localh...')\n#22 {main}"}
